{
  "temperature_modifiers": [
		{
			"condition": "survive:on_fire",
			"temperature": 1.85,
			"fireTimer": 1,
			"operation": ">"
		},
		{
			"condition": "survive:default",
			"temperature": 4.5
		}
	],
  "weight_modifier": 4.992
}