{
	"energy": 2,
	"thirst": 5,
    "hunger": 0,
    "saturation": 0,
	"hydration": 6.0,
	"thirst_chance": 0.0,
	"gives_chilled_effect": false,
	"gives_heated_effect": false,
	"gives_energizing_effect": true
}