{
  "temperature_modifiers": [
		{
			"condition": "survive:on_fire",
			"temperature": 2.85,
			"fireTimer": 1,
			"operation": ">"
		},
		{
			"condition": "survive:default",
			"temperature": 6.0
		}
	],
  "weight_modifier": 7.568
}